…
In our case, the `YEAR` column contains a derived value (the mean average) and
should be removed as it is not a variable of an observation. We can do this using;

```R
temperature %>% select(-YEAR)
```

```
# A tibble: 362 x 13
    DATE   JAN   FEB   MAR   APR   MAY   JUN   JUL   AUG   SEP   OCT   NOV   DEC
   <int> <dbl> <dbl> <dbl> <dbl> <dbl> <dbl> <dbl> <dbl> <dbl> <dbl> <dbl> <dbl>
 1  1659     3     4     6     7    11    13    16    16    13    10     5     2
 2  1660     0     4     6     9    11    14    15    16    13    10     6     5
 3  1661     5     5     6     8    11    14    15    15    13    11     8     6
 4  1662     5     6     6     8    11    15    15    15    13    11     6     3
 5  1663     1     1     5     7    10    14    15    15    13    10     7     5
 6  1664     4     5     5     8    11    15    16    16    13     9     6     4
 7  1665     1     1     5     7    10    14    16    15    13     9     6     2
 8  1666     4     5     6     8    11    15    18    17    14    11     6     3
 9  1667     0     4     2     7    10    15    17    16    13     9     6     3
10  1668     5     5     5     8    10    14    16    16    14    10     6     5
# … with 352 more rows
```
…
For our data set, we would use;

```R
temperature %>% 
    select(-YEAR) %>%
    pivot_longer(c("JAN", "FEB", "MAR", "APR", "MAY", "JUN",
                   "JUL", "AUG", "SEP", "OCT", "NOV", "DEC"),
                 names_to="month",
                 values_to="temperature")
```

```
# A tibble: 4,344 x 3
    DATE month temperature
   <int> <chr>       <dbl>
 1  1659 JAN             3
 2  1659 FEB             4
 3  1659 MAR             6
 4  1659 APR             7
 5  1659 MAY            11
 6  1659 JUN            13
 7  1659 JUL            16
 8  1659 AUG            16
 9  1659 SEP            13
10  1659 OCT            10
# … with 4,334 more rows
```
…
and so, for our data we could use;

```R
temperature %>%
    select(-YEAR) %>%
    pivot_longer(c("JAN", "FEB", "MAR", "APR", "MAY", "JUN",
                   "JUL", "AUG", "SEP", "OCT", "NOV", "DEC"),
                 names_to="month",
                 values_to="temperature") %>%
    rename(year=DATE)
```

```
# A tibble: 4,344 x 3
    year month temperature
   <int> <chr>       <dbl>
 1  1659 JAN             3
 2  1659 FEB             4
 3  1659 MAR             6
 4  1659 APR             7
 5  1659 MAY            11
 6  1659 JUN            13
 7  1659 JUL            16
 8  1659 AUG            16
 9  1659 SEP            13
10  1659 OCT            10
# … with 4,334 more rows
```
…
```R
historical_temperature <- temperature %>%
    select(-YEAR) %>%
    pivot_longer(c("JAN", "FEB", "MAR", "APR", "MAY", "JUN",
                   "JUL", "AUG", "SEP", "OCT", "NOV", "DEC"),
                 names_to="month",
                 values_to="temperature") %>%
    rename(year=DATE) %>%
    mutate(month=factor(month, month_levels))

historical_temperature
```

```
# A tibble: 4,344 x 3
    year month temperature
   <int> <fct>       <dbl>
 1  1659 JAN             3
 2  1659 FEB             4
 3  1659 MAR             6
 4  1659 APR             7
 5  1659 MAY            11
 6  1659 JUN            13
 7  1659 JUL            16
 8  1659 AUG            16
 9  1659 SEP            13
10  1659 OCT            10
# … with 4,334 more rows
```
…
